{
  "Germany": [
    { "name": "Berlin", "value": 7000},
    { "name": "Bayern", "value": 10000}
    ],
  "Europe": [
    {"name": "Germany","value": 7500},
    {"name": "France","value": 7200}
  ]
}
